{"isProdCollectionPage":false,"prodCollectionPage":null,"collection":{"id":13,"handle":"breitling-watch-yupoo","type":1,"automated_type":0,"title":"BREITLING Watch Yupoo","body_html":"<p>BREITLING Watch Yupoo<\/p>","meta_title":"BREITLING Watch Yupoo","meta_keywords":"","meta_description":"BREITLING Watch Yupoo","image":"","custom_url_info":[],"automated_rules":[]},"activeFilterAttrs":[],"activeSortAttrs":{"recommend":{"text":"Recommend","code":"recommend"},"latest_in":{"text":"Latest in","sortby":"id","sortdir":"2","code":"latest_in"}},"productList":{"coll":[{"id":2002,"availability":1,"spu":"","handle":"20230831bg027","title":"Yupoo Breitling watch Top Time A23310121G1X1 BN5 Asia-7750 41mm","sub_title":"DM WHATSAPP BUTTON FOR INFO","price":"1.00","compare_at_price":"0.00","image":{"id":15780,"product_id":2002,"src":"\/cache\/400x0\/product\/3\/image\/2023\/08\/31\/94a16fd745fe30a2b65919b7eec80a64.jpg","alt":"","position":1,"created_at":1693472246,"updated_at":1693472246},"prodlabel":null,"url":"https:\/\/www.yupoovendor.ru\/products\/20230831bg027"},{"id":2001,"availability":1,"spu":"","handle":"20230831bg026","title":"Yupoo Breitling watch Top Time A23310121G1X1 BN5 Asia-7750 41mm","sub_title":"DM WHATSAPP BUTTON FOR INFO","price":"1.00","compare_at_price":"0.00","image":{"id":15771,"product_id":2001,"src":"\/cache\/400x0\/product\/3\/image\/2023\/08\/31\/bc7ac92b8825bd8fa152fda13004134a.jpg","alt":"","position":1,"created_at":1693472235,"updated_at":1693472235},"prodlabel":null,"url":"https:\/\/www.yupoovendor.ru\/products\/20230831bg026"},{"id":2000,"availability":1,"spu":"","handle":"20230831bg025","title":"Yupoo Breitling watch Top Time A23310121G1X1 BN5 Asia-7750 41mm","sub_title":"DM WHATSAPP BUTTON FOR INFO","price":"1.00","compare_at_price":"0.00","image":{"id":15762,"product_id":2000,"src":"\/cache\/400x0\/product\/3\/image\/2023\/08\/31\/f577d681c21041edda0232970f408f9c.jpg","alt":"","position":1,"created_at":1693472224,"updated_at":1693472224},"prodlabel":null,"url":"https:\/\/www.yupoovendor.ru\/products\/20230831bg025"},{"id":1999,"availability":1,"spu":"","handle":"20230831bg024","title":"Yupoo Breitling watch Premier BLS V2 Asia-7750 B01 42mm","sub_title":"DM WHATSAPP BUTTON FOR INFO","price":"1.00","compare_at_price":"0.00","image":{"id":15753,"product_id":1999,"src":"\/cache\/400x0\/product\/3\/image\/2023\/08\/31\/9a1171e616698a6136dc08c2e34969e5.jpg","alt":"","position":1,"created_at":1693472214,"updated_at":1693472214},"prodlabel":null,"url":"https:\/\/www.yupoovendor.ru\/products\/20230831bg024"},{"id":1998,"availability":1,"spu":"","handle":"20230831bg023","title":"Yupoo Breitling watch Premier BLS V2 Asia-7750 B01 42mm","sub_title":"DM WHATSAPP BUTTON FOR INFO","price":"1.00","compare_at_price":"0.00","image":{"id":15744,"product_id":1998,"src":"\/cache\/400x0\/product\/3\/image\/2023\/08\/31\/379db7de1646018a07d4f579aa855e5c.jpg","alt":"","position":1,"created_at":1693472204,"updated_at":1693472204},"prodlabel":null,"url":"https:\/\/www.yupoovendor.ru\/products\/20230831bg023"},{"id":1997,"availability":1,"spu":"","handle":"20230831bg022","title":"Yupoo Breitling watch Premier BLS V2 Asia-7750 B01 42mm","sub_title":"DM WHATSAPP BUTTON FOR INFO","price":"1.00","compare_at_price":"0.00","image":{"id":15735,"product_id":1997,"src":"\/cache\/400x0\/product\/3\/image\/2023\/08\/31\/6c282dca8b5659331da0d342b01b69f6.jpg","alt":"","position":1,"created_at":1693472194,"updated_at":1693472194},"prodlabel":null,"url":"https:\/\/www.yupoovendor.ru\/products\/20230831bg022"},{"id":1996,"availability":1,"spu":"","handle":"20230831bg021","title":"Yupoo Breitling watch Premier BLS V2 Asia-7750 B01 42mm","sub_title":"DM WHATSAPP BUTTON FOR INFO","price":"1.00","compare_at_price":"0.00","image":{"id":15726,"product_id":1996,"src":"\/cache\/400x0\/product\/3\/image\/2023\/08\/31\/db4ae789c176f2567bc6a19f425bb18c.jpg","alt":"","position":1,"created_at":1693472183,"updated_at":1693472183},"prodlabel":null,"url":"https:\/\/www.yupoovendor.ru\/products\/20230831bg021"},{"id":1995,"availability":1,"spu":"","handle":"20230831bg020","title":"Yupoo Breitling watch Premier BLS V2 Asia-7750 B01 42mm","sub_title":"DM WHATSAPP BUTTON FOR INFO","price":"1.00","compare_at_price":"0.00","image":{"id":15717,"product_id":1995,"src":"\/cache\/400x0\/product\/3\/image\/2023\/08\/31\/b4e54c27f10186c4ecfb0026342d93bd.jpg","alt":"","position":1,"created_at":1693472174,"updated_at":1693472174},"prodlabel":null,"url":"https:\/\/www.yupoovendor.ru\/products\/20230831bg020"},{"id":1994,"availability":1,"spu":"","handle":"20230831bg019","title":"Yupoo Breitling watch Premier BLS V2 Asia-7750 B01 42mm","sub_title":"DM WHATSAPP BUTTON FOR INFO","price":"1.00","compare_at_price":"0.00","image":{"id":15708,"product_id":1994,"src":"\/cache\/400x0\/product\/3\/image\/2023\/08\/31\/c539cb86212c5c54a6a3ab31618ead51.jpg","alt":"","position":1,"created_at":1693472163,"updated_at":1693472163},"prodlabel":null,"url":"https:\/\/www.yupoovendor.ru\/products\/20230831bg019"},{"id":1993,"availability":1,"spu":"","handle":"20230831bg018","title":"Yupoo Breitling watch Premier BLS V2 Asia-7750 B01 42mm","sub_title":"DM WHATSAPP BUTTON FOR INFO","price":"1.00","compare_at_price":"0.00","image":{"id":15699,"product_id":1993,"src":"\/cache\/400x0\/product\/3\/image\/2023\/08\/31\/fcbf9d8746092996b4a8a3dd94c80f38.jpg","alt":"","position":1,"created_at":1693472154,"updated_at":1693472154},"prodlabel":null,"url":"https:\/\/www.yupoovendor.ru\/products\/20230831bg018"},{"id":1992,"availability":1,"spu":"","handle":"20230831bg017","title":"Yupoo Breitling watch Premier BLS V2 Asia-7750 B01 42mm","sub_title":"DM WHATSAPP BUTTON FOR INFO","price":"1.00","compare_at_price":"0.00","image":{"id":15690,"product_id":1992,"src":"\/cache\/400x0\/product\/3\/image\/2023\/08\/31\/07f294b85d6515c2111c4e8572ae0fb3.jpg","alt":"","position":1,"created_at":1693472144,"updated_at":1693472144},"prodlabel":null,"url":"https:\/\/www.yupoovendor.ru\/products\/20230831bg017"},{"id":1991,"availability":1,"spu":"","handle":"20230831bg016","title":"Yupoo Breitling watch Premier BLS V2 Asia-7750 B01 42mm","sub_title":"DM WHATSAPP BUTTON FOR INFO","price":"1.00","compare_at_price":"0.00","image":{"id":15681,"product_id":1991,"src":"\/cache\/400x0\/product\/3\/image\/2023\/08\/31\/996de528f730194cdd7aea6d29e19739.jpg","alt":"","position":1,"created_at":1693472133,"updated_at":1693472133},"prodlabel":null,"url":"https:\/\/www.yupoovendor.ru\/products\/20230831bg016"},{"id":1990,"availability":1,"spu":"","handle":"20230831bg015","title":"Yupoo Breitling watch Premier BLS V2 Asia-7750 B01 42mm","sub_title":"DM WHATSAPP BUTTON FOR INFO","price":"1.00","compare_at_price":"0.00","image":{"id":15672,"product_id":1990,"src":"\/cache\/400x0\/product\/3\/image\/2023\/08\/31\/03a47248fc75a0597d443a60bfcff928.jpg","alt":"","position":1,"created_at":1693472121,"updated_at":1693472121},"prodlabel":null,"url":"https:\/\/www.yupoovendor.ru\/products\/20230831bg015"},{"id":1989,"availability":1,"spu":"","handle":"20230831bg014","title":"Yupoo Breitling watch Premier BLS V2 Asia-7750 B01 42mm","sub_title":"DM WHATSAPP BUTTON FOR INFO","price":"1.00","compare_at_price":"0.00","image":{"id":15663,"product_id":1989,"src":"\/cache\/400x0\/product\/3\/image\/2023\/08\/31\/f32f311989ccddc48d7577e953ea44d0.jpg","alt":"","position":1,"created_at":1693472110,"updated_at":1693472110},"prodlabel":null,"url":"https:\/\/www.yupoovendor.ru\/products\/20230831bg014"},{"id":1988,"availability":1,"spu":"","handle":"20230831bg013","title":"Yupoo Breitling Navitimer 1 B01 Chronograph GF V2 Asia-7750 43mm","sub_title":"DM WHATSAPP BUTTON FOR INFO","price":"1.00","compare_at_price":"0.00","image":{"id":15654,"product_id":1988,"src":"\/cache\/400x0\/product\/3\/image\/2023\/08\/31\/6d6fc27fdff5585076b229f81ae7282c.jpg","alt":"","position":1,"created_at":1693472097,"updated_at":1693472097},"prodlabel":null,"url":"https:\/\/www.yupoovendor.ru\/products\/20230831bg013"},{"id":1987,"availability":1,"spu":"","handle":"20230831bg012","title":"Yupoo Breitling Navitimer 1 B01 Chronograph GF V2 Asia-7750 43mm","sub_title":"DM WHATSAPP BUTTON FOR INFO","price":"1.00","compare_at_price":"0.00","image":{"id":15646,"product_id":1987,"src":"\/cache\/400x0\/product\/3\/image\/2023\/08\/31\/2f1e246cf390fd287b25ad7d82af7d31.jpg","alt":"","position":1,"created_at":1693472084,"updated_at":1693472084},"prodlabel":null,"url":"https:\/\/www.yupoovendor.ru\/products\/20230831bg012"},{"id":1986,"availability":1,"spu":"","handle":"20230831bg011","title":"Yupoo Breitling Navitimer 1 B01 Chronograph GF V2 Asia-7750 43mm","sub_title":"DM WHATSAPP BUTTON FOR INFO","price":"1.00","compare_at_price":"0.00","image":{"id":15637,"product_id":1986,"src":"\/cache\/400x0\/product\/3\/image\/2023\/08\/31\/cbbbff71006f3fb5de8f0ccfbb22fc52.jpg","alt":"","position":1,"created_at":1693472063,"updated_at":1693472063},"prodlabel":null,"url":"https:\/\/www.yupoovendor.ru\/products\/20230831bg011"},{"id":1985,"availability":1,"spu":"","handle":"20230831bg010","title":"Yupoo Breitling Navitimer 1 B01 Chronograph GF V2 Asia-7750 43mm","sub_title":"DM WHATSAPP BUTTON FOR INFO","price":"1.00","compare_at_price":"0.00","image":{"id":15628,"product_id":1985,"src":"\/cache\/400x0\/product\/3\/image\/2023\/08\/31\/aad72d3b5bf52a7a36594fb440a915b4.jpg","alt":"","position":1,"created_at":1693472050,"updated_at":1693472050},"prodlabel":null,"url":"https:\/\/www.yupoovendor.ru\/products\/20230831bg010"},{"id":1984,"availability":1,"spu":"","handle":"20230831bg009-cfi8eeqa","title":"Yupoo Breitling watch Avenger Blackbird spy plane 43mm*13mm ","sub_title":"DM WHATSAPP BUTTON FOR INFO","price":"1.00","compare_at_price":"0.00","image":{"id":15619,"product_id":1984,"src":"\/cache\/400x0\/product\/3\/image\/2023\/08\/31\/25d4716813224664e58bffc8bd9833fa.jpg","alt":"","position":1,"created_at":1693471448,"updated_at":1693471448},"prodlabel":null,"url":"https:\/\/www.yupoovendor.ru\/products\/20230831bg009-cfi8eeqa"}],"count":27,"numPerPage":19,"pageNum":1,"pageCount":2},"plc":"","is_prod_collections":false,"prodcollections":"","colladvertise":"","collsort":false}
